Self_Contained_Modules/Self_Contained_Modules.sim/sim_1/behav/xsim/dump.vcd
$date
   Thu May 30 14:38:14 2024
$end

$version
  2023.2
  $dumpfile ("dump.vcd") 
$end

$timescale
  1ps
$end

$scope module FIFO_TB $end
$var reg 1 ! r_Clk $end
$var reg 1 " r_Rst_L $end
$var reg 1 # r_Wr_DV $end
$var reg 1 $ r_Rd_En $end
$var reg 8 % r_Wr_Data [7:0] $end
$var reg 2 & r_AF_Level [1:0] $end
$var reg 2 ' r_AE_Level [1:0] $end
$var wire 1 ( w_AF_Flag $end
$var wire 1 ) w_AE_Flag $end
$var wire 1 * w_Full $end
$var wire 1 + w_Empty $end
$var wire 1 , w_Rd_DV $end
$var wire 8 - w_Rd_Data [7:0] $end
$scope module UUT $end
$var wire 1 . i_Rst_L $end
$var wire 1 / i_Clk $end
$var wire 1 0 i_Wr_DV $end
$var wire 8 1 i_Wr_Data [7:0] $end
$var wire 2 2 i_AF_Level [1:0] $end
$var wire 1 ( o_AF_Flag $end
$var wire 1 * o_Full $end
$var wire 1 3 i_Rd_En $end
$var wire 1 , o_Rd_DV $end
$var reg 8 4 o_Rd_Data [7:0] $end
$var wire 2 5 i_AE_Level [1:0] $end
$var wire 1 ) o_AE_Flag $end
$var wire 1 + o_Empty $end
$var reg 2 6 r_Wr_Addr [1:0] $end
$var reg 2 7 r_Rd_Addr [1:0] $end
$var reg 3 8 r_Count [2:0] $end
$var wire 1 9 w_Rd_DV $end
$var wire 8 : w_Rd_Data [7:0] $end
$scope module FIFO_Inst $end
$var wire 1 / i_Wr_Clk $end
$var wire 2 ; i_Wr_Addr [1:0] $end
$var wire 1 0 i_Wr_DV $end
$var wire 8 1 i_Wr_Data [7:0] $end
$var wire 1 / i_Rd_Clk $end
$var wire 2 < i_Rd_Addr [1:0] $end
$var wire 1 3 i_Rd_En $end
$var reg 1 = o_Rd_DV $end
$var reg 8 > o_Rd_Data [7:0] $end
$upscope $end
$upscope $end
$scope begin Block53_6 $end
$var integer 32 ? i [31:0] $end
$upscope $end
$scope task reset_fifo $end
$upscope $end
$upscope $end
$enddefinitions $end

#0
$dumpvars
0!
0"
0#
0$
b0 %
b11 &
b1 '
0(
1)
0*
1+
x,
bx -
0.
0/
00
b0 1
b11 2
03
bx 4
b1 5
b0 6
b0 7
b0 8
x9
bx :
b0 ;
b0 <
x=
bx >
bx ?
$end

#10000
1!
0,
1/
09
0=

#20000
0!
0/

#30000
1!
1"
1.
1/

#40000
0!
0/

#50000
1!
1/

#60000
0!
0/

#70000
1!
1#
b10101011 %
1/
10
b10101011 1

#80000
0!
0/

#90000
1!
0#
0)
0+
1/
00
b1 6
b1 8
b1 ;

#100000
0!
0/

#110000
1!
1/
b10101011 :
b10101011 >

#120000
0!
0/

#130000
1!
1/

#140000
0!
0/

#150000
1!
1/

#160000
0!
0/

#170000
1!
1/

#180000
0!
0/

#190000
1!
1$
1/
13

#200000
0!
0/

#210000
1!
0$
1)
1+
1,
b10101011 -
1/
03
b10101011 4
b1 7
b0 8
19
b1 <
1=

#220000
0!
0/

#230000
1!
0,
1/
09
bx :
0=
bx >

#240000
0!
0/

#250000
1!
0"
0.
1/
b0 6
b0 7
b0 ;
b0 <

#260000
0!
0/

#270000
1!
1"
1.
1/
b10101011 :
b10101011 >

#280000
0!
0/

#290000
1!
1/

#300000
0!
0/

#310000
1!
1#
b110000 %
1/
10
b110000 1

#320000
0!
0/

#330000
1!
0#
0)
0+
1/
00
b1 6
b1 8
b1 ;

#340000
0!
0/

#350000
1!
1#
b110001 %
1/
10
b110001 1
b110000 :
b110000 >

#360000
0!
0/

#370000
1!
0#
1(
1/
00
b10 6
b10 8
b10 ;

#380000
0!
0/

#390000
1!
1#
b110010 %
1/
10
b110010 1

#400000
0!
0/

#410000
1!
0#
1/
00
b11 6
b11 8
b11 ;

#420000
0!
0/

#430000
1!
1#
b110011 %
1*
1/
10
b110011 1

#440000
0!
0/

#450000
1!
0#
1/
00
b0 6
b100 8
b0 ;

#460000
0!
0/

#470000
1!
b110100 %
1/
b110100 1

#480000
0!
0/

#490000
1!
1/

#500000
0!
0/

#510000
1!
1$
1/
13
b110000 ?

#520000
0!
0/

#530000
1!
0$
0*
1,
b110000 -
1/
03
b110000 4
b1 7
b11 8
19
b1 <
1=

#540000
0!
0/

#550000
1!
0,
1/
09
b110001 :
0=
b110001 >

#560000
0!
0/

#570000
1!
1$
1/
13
b110001 ?

#580000
0!
0/

#590000
1!
0$
1,
b110001 -
1/
03
b110001 4
b10 7
b10 8
19
b10 <
1=

#600000
0!
0/

#610000
1!
0,
1/
09
b110010 :
0=
b110010 >

#620000
0!
0/

#630000
1!
1$
1/
13
b110010 ?

#640000
0!
0/

#650000
1!
0$
0(
1,
b110010 -
1/
03
b110010 4
b11 7
b1 8
19
b11 <
1=

#660000
0!
0/

#670000
1!
0,
1/
09
b110011 :
0=
b110011 >

#680000
0!
0/

#690000
1!
1$
1/
13
b110011 ?

#700000
0!
0/

#710000
1!
0$
1)
1+
1,
b110011 -
1/
03
b110011 4
b0 7
b0 8
19
b0 <
1=

#720000
0!
0/

#730000
1!
0,
1/
09
b110000 :
0=
b110000 >

#740000
0!
0/

#750000
1!
1/
b110100 ?

#760000
0!
0/

#770000
1!
0"
0.
1/

#780000
0!
0/

#790000
1!
1"
1.
1/

#800000
0!
0/

#810000
1!
1/

#820000
0!
0/

#830000
1!
1#
1$
1/
10
13

#840000
0!
0/

#850000
1!
1,
b110000 -
1/
b110000 4
b1 6
b1 7
19
b1 ;
b1 <
1=

#860000
0!
0/

#870000
1!
0$
1/
03
b10 6
b10 7
b110001 :
b10 ;
b10 <
b110001 >

#880000
0!
0/

#890000
1!
0)
0+
0,
1/
b11 6
b1 8
09
b110010 :
b11 ;
0=
b110010 >

#900000
0!
0/

#910000
1!
1(
1/
b0 6
b10 8
b110100 :
b0 ;
b110100 >

#920000
0!
0/

#930000
1!
1*
1/
b1 6
b11 8
b1 ;

#940000
0!
0/

#950000
1!
1$
1/
13
b10 6
b100 8
b10 ;

#960000
0!
0/

#970000
1!
1,
b110100 -
1/
b110100 4
b11 6
b11 7
19
b11 ;
b11 <
1=

#980000
0!
0/

#990000
1!
0#
0$
1/
00
03
b0 6
b0 7
b0 ;
b0 <

